module gitlab.com/edea-dev/edea-server

go 1.19

require (
	github.com/abhinav/goldmark-mermaid v0.2.0
	github.com/alecthomas/chroma v0.10.0
	github.com/coreos/go-oidc/v3 v3.4.0
	github.com/gin-contrib/zap v0.1.0
	github.com/gin-gonic/gin v1.8.1
	github.com/gitsight/go-vcsurl v1.0.0
	github.com/go-git/go-git/v5 v5.5.0
	github.com/google/uuid v1.3.0
	github.com/gorilla/schema v1.2.0
	github.com/jackc/pgx/v4 v4.17.2
	github.com/kelseyhightower/envconfig v1.4.0
	github.com/matthewhartstonge/argon2 v0.3.2
	github.com/meilisearch/meilisearch-go v0.21.1
	github.com/yuin/goldmark v1.5.3
	github.com/yuin/goldmark-highlighting v0.0.0-20220208100518-594be1970594
	github.com/yuin/goldmark-meta v1.1.0
	go.uber.org/zap v1.24.0
	golang.org/x/oauth2 v0.2.0
	gopkg.in/square/go-jose.v2 v2.6.0
	gopkg.in/yaml.v3 v3.0.1
	gorm.io/datatypes v1.1.0
	gorm.io/driver/postgres v1.4.5
	gorm.io/gorm v1.24.2
	moul.io/zapgorm2 v1.1.3
)

require (
	github.com/Microsoft/go-winio v0.6.0 // indirect
	github.com/ProtonMail/go-crypto v0.0.0-20221026131551-cf6655e29de4 // indirect
	github.com/acomagu/bufpipe v1.0.3 // indirect
	github.com/andybalholm/brotli v1.0.4 // indirect
	github.com/cloudflare/circl v1.3.0 // indirect
	github.com/dlclark/regexp2 v1.7.0 // indirect
	github.com/emirpasic/gods v1.18.1 // indirect
	github.com/gin-contrib/sse v0.1.0 // indirect
	github.com/go-git/gcfg v1.5.0 // indirect
	github.com/go-git/go-billy/v5 v5.3.1 // indirect
	github.com/go-playground/locales v0.14.0 // indirect
	github.com/go-playground/universal-translator v0.18.0 // indirect
	github.com/go-playground/validator/v10 v10.11.1 // indirect
	github.com/go-sql-driver/mysql v1.7.0 // indirect
	github.com/goccy/go-json v0.10.0 // indirect
	github.com/golang-jwt/jwt/v4 v4.4.3 // indirect
	github.com/golang/protobuf v1.5.2 // indirect
	github.com/imdario/mergo v0.3.13 // indirect
	github.com/jackc/chunkreader/v2 v2.0.1 // indirect
	github.com/jackc/pgconn v1.13.0 // indirect
	github.com/jackc/pgio v1.0.0 // indirect
	github.com/jackc/pgpassfile v1.0.0 // indirect
	github.com/jackc/pgproto3/v2 v2.3.1 // indirect
	github.com/jackc/pgservicefile v0.0.0-20200714003250-2b9c44734f2b // indirect
	github.com/jackc/pgtype v1.13.0 // indirect
	github.com/jbenet/go-context v0.0.0-20150711004518-d14ea06fba99 // indirect
	github.com/jinzhu/inflection v1.0.0 // indirect
	github.com/jinzhu/now v1.1.5 // indirect
	github.com/josharian/intern v1.0.0 // indirect
	github.com/json-iterator/go v1.1.12 // indirect
	github.com/kevinburke/ssh_config v1.2.0 // indirect
	github.com/klauspost/compress v1.15.12 // indirect
	github.com/leodido/go-urn v1.2.1 // indirect
	github.com/mailru/easyjson v0.7.7 // indirect
	github.com/mattn/go-isatty v0.0.16 // indirect
	github.com/modern-go/concurrent v0.0.0-20180306012644-bacd9c7ef1dd // indirect
	github.com/modern-go/reflect2 v1.0.2 // indirect
	github.com/pelletier/go-toml/v2 v2.0.6 // indirect
	github.com/pjbgf/sha1cd v0.2.3 // indirect
	github.com/sergi/go-diff v1.2.0 // indirect
	github.com/skeema/knownhosts v1.1.0 // indirect
	github.com/ugorji/go/codec v1.2.7 // indirect
	github.com/valyala/bytebufferpool v1.0.0 // indirect
	github.com/valyala/fasthttp v1.43.0 // indirect
	github.com/xanzy/ssh-agent v0.3.3 // indirect
	go.opentelemetry.io/otel v1.11.1 // indirect
	go.opentelemetry.io/otel/trace v1.11.1 // indirect
	go.uber.org/atomic v1.10.0 // indirect
	go.uber.org/multierr v1.8.0 // indirect
	golang.org/x/crypto v0.3.0 // indirect
	golang.org/x/mod v0.7.0 // indirect
	golang.org/x/net v0.2.0 // indirect
	golang.org/x/sys v0.3.0 // indirect
	golang.org/x/text v0.5.0 // indirect
	golang.org/x/tools v0.3.0 // indirect
	google.golang.org/appengine v1.6.7 // indirect
	google.golang.org/protobuf v1.28.1 // indirect
	gopkg.in/warnings.v0 v0.1.2 // indirect
	gopkg.in/yaml.v2 v2.4.0 // indirect
	gorm.io/driver/mysql v1.4.4 // indirect
)
